Parte 1: probabilidade de uma palavra ocorrer em qualquer posição dentro do texto

mudei	0.00085
e	0.03066
tem	0.00426
irmã	0.00170
passou	0.00085
dei	0.00085
casa	0.00256
menino	0.00085
parecendo	0.00085
contando	0.00085
quarenta	0.00170
caixão	0.00256
séria	0.00085
pois	0.00170
sala	0.00256
qual	0.00170
nada	0.00256
conversa	0.00085
ele	0.00596
vou	0.00511
muitos	0.00256
vizinha	0.00085
bem	0.00085
guardado	0.00170
tá	0.01193
ter	0.00085
pronto	0.00085
outra	0.00341
racharam	0.00085
nos	0.00085
perdoado	0.00085
escutou	0.00085
larguei	0.00085
minha	0.00937
elvira	0.00341
levou	0.00170
satisfação	0.00085
na	0.01022
reais	0.00085
anotado	0.00085
detalhe	0.00085
falecido	0.00085
dar	0.00170
mesmo	0.00256
devo	0.00085
negócio	0.00170
aquele	0.00170
pode	0.00170
aqui	0.00256
filho	0.00767
sim	0.00085
dia	0.00085
do	0.00596
vão	0.00256
arranjar	0.00085
voltou	0.00085
ana	0.00085
siora	0.00256
ham	0.00170
com	0.00426
pagar	0.00341
compra	0.00256
larga	0.00085
viva	0.00085
três	0.00170
rodeando	0.00085
dinheiro	0.00085
toda	0.00085
ainda	0.00170
morreu	0.00170
ouvir	0.00085
freguesa	0.00085
devia	0.00341
perdida	0.00085
dever	0.00085
sair	0.00256
dragão	0.00170
sei	0.00341
vá	0.00170
foi	0.00852
escrito	0.00085
aparecido	0.00085
acertar	0.00085
dou	0.00256
pediu	0.00085
ou	0.00085
cidade	0.00511
amarra	0.00085
sem	0.00256
essa	0.00085
juntou	0.00085
avisei	0.00170
jogo	0.00085
errado	0.00170
tar	0.00085
jeitinho	0.00085
no	0.00767
recebo	0.00256
não	0.01533
papo	0.00085
lá	0.04089
pra	0.00341
ocê	0.00596
podia	0.00085
espiritismo	0.00085
pagando	0.00085
pensou	0.00085
parte	0.00341
posso	0.00085
então	0.00511
entendeu	0.00085
véspera	0.00170
vez	0.00085
até	0.00256
porque	0.01278
achei	0.00085
povo	0.00085
jeito	0.00256
uma	0.00767
dele	0.00170
pessoal	0.00085
perto	0.00085
corpo	0.00426
teve	0.00085
pensando	0.00085
nas	0.00085
nome	0.00170
grande	0.00170
são	0.00085
prefunda	0.00170
aí	0.02129
natal	0.00256
trouxe	0.00085
maricota	0.00085
marido	0.00085
dela	0.00341
trapalhado	0.00085
de	0.01193
só	0.00426
bom	0.00170
mudou	0.00085
resolveu	0.00085
dificuldade	0.00170
fala	0.00085
ocês	0.00085
fez	0.00256
aqueas	0.00085
as	0.00085
depois	0.00256
ali	0.00085
viúva	0.00085
uai	0.00256
faz	0.00085
nossa	0.00085
vai	0.00426
cobrei	0.00085
tranqüilamente	0.00085
liquidando	0.00085
trinta	0.00085
sô	0.00085
uhn	0.00170
mas	0.00852
foram	0.00170
certim	0.00085
tal	0.00511
depressa	0.00085
livro	0.00341
sistemático	0.00085
compras	0.00085
loja	0.00426
meu	0.00170
chega	0.00085
mandei	0.00085
isso	0.00426
muito	0.00256
agora	0.00341
já	0.00426
morrido	0.00085
tava	0.00681
ranjou	0.00085
brava	0.00085
o’	0.00170
tanto	0.00426
embora	0.00341
nũ	0.02555
pertence	0.00085
vim	0.00085
pos	0.00085
tamboretes	0.00085
cabei	0.00085
querer	0.00085
familiares	0.00085
pessoais	0.00085
sabe	0.00085
negociando	0.00085
lugar	0.00256
anos	0.00256
recebi	0.00085
me	0.00767
ouviu	0.00085
em	0.00170
conhecida	0.00085
verdade	0.00085
certo	0.00085
converso	0.00085
aloysio	0.00170
mil-novecentos-e-sessenta-e-dois	0.00085
ano	0.00511
despede	0.00085
vela	0.00085
cobrar	0.00170
trouxeram	0.00170
o	0.03748
dos	0.00170
morando	0.00085
pas	0.00170
verdadeira	0.00085
bravo	0.00085
deu	0.00170
roupa	0.00085
pedro	0.00681
comprou	0.00170
seu	0.00511
é	0.01959
pouquim	0.00085
velho	0.00085
eu	0.02300
assim	0.00170
sessenta-e-dois	0.00170
pr’	0.00085
quase	0.00085
meio	0.00256
que	0.02044
daquele	0.00085
esses	0.00170
uns	0.00341
tendeu	0.00085
velório	0.00085
hein	0.00085
queimasse	0.00085
ficou	0.00085
aumento	0.00085
buscar	0.00256
pa	0.01107
fim	0.00085
conta	0.01107
fiquei	0.00085
deve	0.00085
quando	0.00085
pouco	0.00085
ela	0.00511
olhar	0.00085
melhor	0.00085
há	0.00426
cabou	0.00085
história	0.00170
época	0.00085
hora	0.00256
ô	0.00426
questão	0.00085
enterro	0.00256
mulher	0.00341
ficar	0.00085
sai	0.00170
falou	0.00426
fica	0.00256
da	0.00767
es	0.00170
compricar	0.00085
a	0.01789
dava	0.00085
lendo	0.00085
sistemática	0.00085
dona	0.00596
quanto	0.00085
pai	0.00085
veio	0.00170
dá	0.00085
opa	0.00085
coisa	0.00256
ah	0.00341
deixa	0.00170
perdoei	0.00085
sabia	0.00085
nem	0.00256
acho	0.00085
te	0.00341
pagou	0.00085
fui	0.00085
comigo	0.00170
adoeceu	0.00085
setenta	0.00085
dento	0.00170
à	0.00170
cê	0.00681
mãe	0.00511
tô	0.00170
quantos	0.00085
despedir	0.00085
né	0.00767
mundo	0.00170
fora	0.00170
meninada	0.00085
chegou	0.00170
tudo	0.00085
diabo	0.00085
como	0.00085
mim	0.00170
determinada	0.00085
força	0.00085
cá	0.00256
também	0.00426
deixar	0.00170
sabendo	0.00085
disso	0.00085
os	0.00426
enterrar	0.00085
p’	0.00170
passando	0.00085
esticado	0.00085
saber	0.00085
coluna	0.00170
fiado	0.00085
tempo	0.00256
dedo	0.00085
quero	0.00256
inventa	0.00085
falar	0.00085
diz	0.00085
tradição	0.00085
caso	0.00170
tamparam	0.00085
recibo	0.00085
mais	0.00256
precisa	0.00085
aquela	0.00085
po	0.00085
outro	0.00170
um	0.00681
se	0.00085
queria	0.00085
quis	0.00256
menos	0.00085
mil-novecentos-sessenta-e	0.00085
batendo	0.00085
quer	0.00256
fulana	0.00170
achando	0.00085
financeira	0.00085
pôs	0.00256
sio’	0.00256
tinha	0.00256
meus	0.00085
inferno	0.00170
quitação	0.00256
falei	0.00681
cemitério	0.00085
negòcio	0.00085
ea	0.00596
atrás	0.00085
menina	0.00085
ir	0.00170
alguma	0.00085
dois-mil	0.00085
nariz	0.00085
d’	0.00170
todo	0.00511
eustáquio	0.00170
levaram	0.00085
trem	0.00085
presente	0.00170
fácil	0.00085
trazer	0.00085
dois-milhões-e	0.00085
e’	0.00085
era	0.00511
correram	0.00085

Parte 2: probabilidade de uma palavra ocorrer num INT no texto

aí	0.03333
eu	0.16667
siora	0.03333
e	0.03333
agora	0.03333
dava	0.03333
ea	0.06667
assim	0.03333
lá	0.03333
ele	0.03333
falou	0.16667
tá	0.03333
escrito	0.03333
falei	0.20000
a	0.03333
fala	0.03333
