Parte 1: probabilidade de uma palavra ocorrer em qualquer posição dentro do texto

de	0.05138
táxi	0.00064
tinha	0.00321
reduzido	0.00064
mercado	0.00771
vem	0.00064
preste	0.00064
dia	0.00128
caro	0.00064
época	0.00064
loja	0.00064
um-milhão-e-setecentos-mil	0.00064
ser	0.00193
tanta	0.00064
outra	0.00321
consumidor	0.00193
primeira	0.00128
orientá-los	0.00064
marmita	0.00064
modo	0.00064
fizemos	0.00064
extenso	0.00064
seus	0.00064
manual	0.00321
máquina	0.00064
municipal	0.00064
uso	0.00064
homem	0.00064
mostrar	0.00064
esse	0.00321
nũ	0.00963
usar	0.00128
cima	0.00128
porto	0.00064
boa	0.00128
ganhando	0.00064
exportar	0.00064
branca	0.00257
chega	0.00064
brasil	0.00064
almoçar	0.00064
dele	0.00128
família	0.00064
ter	0.00193
comer	0.00064
fora	0.00128
suporte	0.00064
ler	0.00193
geladeira	0.00064
temos	0.00128
ligar	0.00064
entrevista	0.00064
ligou	0.00064
dar	0.00193
lava-louça	0.00064
trade	0.00064
funciona	0.00064
outos	0.00064
dessa	0.00385
federal	0.00128
e	0.04624
apareceu	0.00064
poder	0.00385
multinacionais	0.00128
po	0.00064
um-milhão-e-meio	0.00064
chamarem	0.00064
lembro	0.00064
gerais	0.00064
banco	0.00064
crédito	0.00128
quase	0.00064
vendas	0.00128
aparelhos	0.00064
negócio	0.00128
recursos	0.00064
comprei	0.00064
trabalhar	0.00064
rentabilidade	0.00064
melhor	0.00128
acham	0.00064
sou	0.00064
interessante	0.00128
era	0.00514
real	0.00064
tubarão	0.00064
siora	0.00064
estadual	0.00064
diretores	0.00064
bom	0.00578
amigo	0.00064
liqüidez	0.00064
trabalho	0.00321
carros	0.00064
lê	0.00128
fornecimento	0.00128
funcionários	0.00064
fui	0.00450
todo	0.00064
aqueles	0.00064
televisor	0.00064
uma	0.01541
voltei	0.00128
gente	0.00771
caso	0.00257
passar	0.00064
audiovisual	0.00064
do	0.00899
vi	0.00064
aí	0.00064
excessiva	0.00064
markup	0.00064
dizer	0.00064
som	0.00257
dezenove	0.00064
nossa	0.00193
ele	0.00321
então	0.00064
mil	0.00064
nenhuma	0.00064
manuais	0.00128
isso	0.00321
crescerem	0.00064
dum	0.00128
sábado	0.00064
botar	0.00064
trabalhando	0.00128
dei	0.00064
relés	0.00064
da	0.01028
acontece	0.00064
algum	0.00193
poblema	0.00128
dedicar	0.00064
funcionar	0.00064
capitalizada	0.00064
manhã	0.00064
vez	0.00064
à	0.00128
concorrer	0.00064
com	0.00706
chamamos	0.00064
cinco	0.00064
país	0.00514
curso	0.00064
oi	0.00064
bem	0.00064
transformadores	0.00064
secundária	0.00064
depois	0.00257
logicamente	0.00064
jantar	0.00064
administrativa	0.00064
abecê	0.00064
caros	0.00064
consegue	0.00064
são	0.00128
iniciei	0.00064
transformou	0.00064
própia	0.00128
proteção	0.00064
clientes	0.00064
primeiro	0.00128
reforma	0.00064
tamos	0.00064
ponto	0.00064
hoje	0.00321
própias	0.00064
consumidores	0.00064
qualificada	0.00064
ia	0.00064
iniciando	0.00064
têm	0.00064
gerencio	0.00064
distribuidores	0.00064
demais	0.00064
linha	0.00706
formar	0.00064
abrir	0.00064
concorrente	0.00064
leio	0.00128
tá	0.00193
serviço	0.00064
os	0.00257
errado	0.00064
filial	0.00064
fiscal	0.00064
atuando	0.00064
capital	0.00064
não	0.00450
devedê	0.00064
indústrias	0.00064
brasileiro	0.00450
motores	0.00064
sua	0.00193
viajar	0.00064
parte	0.00064
satisfaça	0.00064
carga	0.00064
instruções	0.00064
network	0.00064
aproximar	0.00064
trabalha	0.00193
jorge	0.00064
distrito	0.00064
formação	0.00128
aprendendo	0.00064
passo	0.00064
tinhas	0.00128
atualmente	0.00128
condicionado	0.00064
humanos	0.00064
lavar	0.00064
vida	0.00385
tenho	0.00128
aprende	0.00064
eu	0.02890
há	0.00064
própios	0.00064
vender	0.00128
sócio	0.00257
a	0.02826
dinheiro	0.00064
duma	0.00128
procuravam	0.00064
carente	0.00064
verdade	0.00064
rede	0.00064
novidade	0.00064
seria	0.00064
ou	0.00128
lá	0.00193
mas	0.00450
compra	0.00064
terceira	0.00064
carro	0.00193
acontecia	0.00128
tava	0.00064
távamos	0.00064
tipo	0.00257
cuida	0.00064
aqui	0.00064
nível	0.00128
viajei	0.00064
alibrir	0.00064
dentro	0.01028
marrom	0.00257
celular	0.00064
treinado	0.00064
quatro	0.00064
filiais	0.00064
garantia	0.00193
nessa	0.00128
passei	0.00128
tô	0.00128
em	0.00899
cada	0.00128
conta	0.00128
acha	0.00064
descanso	0.00064
particular	0.00064
tributária	0.00321
interesse	0.00128
tar	0.00064
técnica	0.00128
pro	0.00128
se	0.00514
experiência	0.00771
aftermarket	0.00128
coisa	0.00321
informei	0.00064
formado	0.00193
artistas	0.00064
aparelho	0.00128
estrela	0.00064
melhorar	0.00064
fecha	0.00064
autopeça	0.00193
vontade	0.00064
alternada	0.00064
imagem	0.00064
porque	0.00450
também	0.00257
lucro	0.00193
favor	0.00128
até	0.00450
como	0.00321
disjuntores	0.00064
cê	0.00193
minas	0.00128
das	0.00514
tem	0.00578
faturamento	0.00064
aproveitar	0.00064
inibe	0.00064
assim	0.00385
chegava	0.00064
bancos	0.00064
vendedores	0.00064
dava	0.00064
prestar	0.00064
produto	0.00385
área	0.00642
tempo	0.00385
desenvolver	0.00064
notas	0.00064
queriam	0.00064
cartas	0.00064
geração	0.00064
estavam	0.00064
papel	0.00064
seu	0.00064
atendimento	0.00064
automotiva	0.00064
aonde	0.00385
numa	0.00064
importar	0.00064
tecnologia	0.00321
televisores	0.00064
deles	0.00064
criar	0.00064
zero	0.00064
né	0.00257
informação	0.00064
muito	0.01156
vende	0.00064
ao	0.00128
fazer	0.00257
outras	0.00064
disso	0.00128
acompanhado	0.00064
curva	0.00064
pegando	0.00064
cedê	0.00064
reposição	0.00193
montadoras	0.00064
implantava	0.00064
fiquei	0.00385
período	0.00193
oportunidade	0.00064
nos	0.00064
fazem	0.00064
nossos	0.00064
afora	0.00064
pra	0.01220
entendia	0.00064
sobre	0.00128
nosso	0.00193
ônibus	0.00064
automotivo	0.00128
tido	0.00064
média	0.00064
cartão	0.00064
exportações	0.00064
cálculo	0.00064
empresa	0.00771
isoladores	0.00064
cem	0.00064
assinávamo	0.00064
durante	0.00257
nós	0.00642
empresas	0.00193
esferas	0.00064
indústria	0.00064
tudo	0.00193
equipamentos	0.00064
coqueluche	0.00064
determinados	0.00128
gostava	0.00064
saí	0.00193
pessoal	0.00064
dobro	0.00128
gerente	0.00064
consegui	0.00064
vaga	0.00128
vezes	0.00064
terço	0.00064
aos	0.00064
alunos	0.00064
traçar	0.00064
pouquinho	0.00128
alguma	0.00064
vai	0.00064
pelo	0.00128
eles	0.00257
convite	0.00064
no	0.00899
momento	0.00128
nas	0.00064
santo	0.00064
montadora	0.00064
as	0.00321
corrente	0.00128
cultura	0.00064
pa	0.00385
comigo	0.00064
naquela	0.00064
produtos	0.00128
começa	0.00064
mesmo	0.00128
adquirindo	0.00064
tinham	0.00064
multinacional	0.00514
comercial	0.00321
outro	0.00321
totalmente	0.00064
estava	0.00128
defende	0.00064
virada	0.00064
usá-lo	0.00064
elétrica	0.00128
que	0.03083
nesse	0.00193
havia	0.00064
venda	0.00128
engenharia	0.00193
minha	0.00257
ferramentas	0.00064
você	0.00642
fiz	0.00064
fiscais	0.00064
quilômetro	0.00064
virtude	0.00128
segunda	0.00064
paulo	0.00064
pessoas	0.00064
almoço	0.00128
comprar	0.00128
quer	0.00128
diferente	0.00128
temo	0.00064
noção	0.00064
aquilo	0.00257
projetar	0.00128
dos	0.00128
nunca	0.00064
mesma	0.00128
o	0.01927
base	0.00128
reais	0.00064
entrando	0.00128
foi	0.00257
contratar	0.00064
três	0.00064
aquele	0.00064
já	0.00257
adquirir	0.00064
sempre	0.00128
correndo	0.00064
contínua	0.00064
amizades	0.00064
grupo	0.00064
exportação	0.00128
vendendo	0.00064
líquido	0.00128
pertence	0.00064
desenvolvendo	0.00064
outros	0.00128
ganhava	0.00064
precisamo	0.00064
essa	0.00064
só	0.00064
belo	0.00128
adquirida	0.00064
restaurante	0.00128
salário	0.00128
projeto	0.00064
adquira	0.00064
mexeu	0.00064
avião	0.00064
eletoeletrônicos	0.00064
pela	0.00064
na	0.00706
marcava	0.00064
mexer	0.00064
é	0.00899
videocassete	0.00064
espalhada	0.00064
informou	0.00128
fala	0.00128
chamado	0.00064
fácil	0.00064
comprasse	0.00064
me	0.00642
mais	0.00128
microondas	0.00064
bruto	0.00064
desenvolvia	0.00064
um	0.02312
li	0.00064
fogão	0.00064
cair	0.00064
dá	0.00064
amizade	0.00128
espírito	0.00064
empresários	0.00128
quando	0.00128
automotivos	0.00064
ar	0.00064
pouco	0.00193
às	0.00064
colocava	0.00064
conhecer	0.00064
goiás	0.00064
contrato	0.00064
universidades	0.00064
desenvolvi	0.00064
envolvia	0.00064
mundo	0.00064
ano	0.00064
achava	0.00064
falar	0.00064
própria	0.00064
despesa	0.00064
esses	0.00128
dez	0.00064
vinte-e-cinco	0.00064
mineira	0.00064
tive	0.00064
hábito	0.00193
através	0.00064
trocamos	0.00064
num	0.00193
mês	0.00064
facilitou	0.00064
onde	0.00128
por	0.00771
partido	0.00064
convidavam	0.00064
chegou	0.00064
viajando	0.00064
etcetera	0.00128
domingo	0.00064
situação	0.00064
sólida	0.00064
dois	0.00064
empregado	0.00064
junto	0.00064
tão	0.00064
profissional	0.00321
rio	0.00064

Parte 2: probabilidade de uma palavra ocorrer num INT no texto

falar	0.05882
foi	0.05882
a	0.11765
ponto	0.05882
chegou	0.05882
ao	0.05882
de	0.11765
nível	0.05882
quer	0.05882
uma	0.05882
tipo	0.05882
que	0.05882
motores	0.05882
gente	0.05882
siora	0.05882
